module mitsoСhat

go 1.14

require (
	github.com/asaskevich/govalidator v0.0.0-20190424111038-f61b66f89f4a // indirect
	github.com/dgrijalva/jwt-go v3.2.0+incompatible
	github.com/douglasmakey/go-fcm v0.0.0-20190519231340-ddb9be53f822
	github.com/go-ozzo/ozzo-validation v3.6.0+incompatible
	github.com/google/uuid v1.2.0 // indirect
	github.com/googollee/go-socket.io v1.4.3
	github.com/gorilla/mux v1.7.3
	github.com/lib/pq v1.3.0
	github.com/sirupsen/logrus v1.4.2
	golang.org/x/crypto v0.0.0-20191206172530-e9b2fee46413
)
